%YAML 1.1
%TAG !u! tag:unity3d.com,2011:
--- !u!1 &2908433019074142409
GameObject:
  m_ObjectHideFlags: 0
  m_CorrespondingSourceObject: {fileID: 0}
  m_PrefabInstance: {fileID: 0}
  m_PrefabAsset: {fileID: 0}
  serializedVersion: 6
  m_Component:
  - component: {fileID: 1192108045539126398}
  - component: {fileID: 4796278758225876654}
  m_Layer: 0
  m_Name: prefab_PowerPellet_Egg
  m_TagString: Power Pellet
  m_Icon: {fileID: 0}
  m_NavMeshLayer: 0
  m_StaticEditorFlags: 0
  m_IsActive: 1
--- !u!4 &1192108045539126398
Transform:
  m_ObjectHideFlags: 0
  m_CorrespondingSourceObject: {fileID: 0}
  m_PrefabInstance: {fileID: 0}
  m_PrefabAsset: {fileID: 0}
  m_GameObject: {fileID: 2908433019074142409}
  m_LocalRotation: {x: 0, y: 0, z: 0, w: 1}
  m_LocalPosition: {x: 0, y: 1, z: 0}
  m_LocalScale: {x: 1, y: 1, z: 1}
  m_Children:
  - {fileID: 8628327858777990999}
  m_Father: {fileID: 0}
  m_RootOrder: 0
  m_LocalEulerAnglesHint: {x: 0, y: 0, z: 0}
--- !u!65 &4796278758225876654
BoxCollider:
  m_ObjectHideFlags: 0
  m_CorrespondingSourceObject: {fileID: 0}
  m_PrefabInstance: {fileID: 0}
  m_PrefabAsset: {fileID: 0}
  m_GameObject: {fileID: 2908433019074142409}
  m_Material: {fileID: 0}
  m_IsTrigger: 1
  m_Enabled: 1
  serializedVersion: 2
  m_Size: {x: 2.5, y: 1.5, z: 2.5}
  m_Center: {x: 0.5, y: 0.25, z: 0}
--- !u!1001 &8086005342484086972
PrefabInstance:
  m_ObjectHideFlags: 0
  serializedVersion: 2
  m_Modification:
    m_TransformParent: {fileID: 1192108045539126398}
    m_Modifications:
    - target: {fileID: -8679921383154817045, guid: 0d40cc4c255c2164295a1d4782094fc4, type: 3}
      propertyPath: m_RootOrder
      value: 0
      objectReference: {fileID: 0}
    - target: {fileID: -8679921383154817045, guid: 0d40cc4c255c2164295a1d4782094fc4, type: 3}
      propertyPath: m_LocalPosition.x
      value: 0.43286797
      objectReference: {fileID: 0}
    - target: {fileID: -8679921383154817045, guid: 0d40cc4c255c2164295a1d4782094fc4, type: 3}
      propertyPath: m_LocalPosition.y
      value: 0.20994532
      objectReference: {fileID: 0}
    - target: {fileID: -8679921383154817045, guid: 0d40cc4c255c2164295a1d4782094fc4, type: 3}
      propertyPath: m_LocalPosition.z
      value: -0.21375434
      objectReference: {fileID: 0}
    - target: {fileID: -8679921383154817045, guid: 0d40cc4c255c2164295a1d4782094fc4, type: 3}
      propertyPath: m_LocalRotation.w
      value: 0.7071067
      objectReference: {fileID: 0}
    - target: {fileID: -8679921383154817045, guid: 0d40cc4c255c2164295a1d4782094fc4, type: 3}
      propertyPath: m_LocalRotation.x
      value: -0.7071068
      objectReference: {fileID: 0}
    - target: {fileID: -8679921383154817045, guid: 0d40cc4c255c2164295a1d4782094fc4, type: 3}
      propertyPath: m_LocalRotation.y
      value: -0
      objectReference: {fileID: 0}
    - target: {fileID: -8679921383154817045, guid: 0d40cc4c255c2164295a1d4782094fc4, type: 3}
      propertyPath: m_LocalRotation.z
      value: -0
      objectReference: {fileID: 0}
    - target: {fileID: -8679921383154817045, guid: 0d40cc4c255c2164295a1d4782094fc4, type: 3}
      propertyPath: m_LocalEulerAnglesHint.x
      value: 0
      objectReference: {fileID: 0}
    - target: {fileID: -8679921383154817045, guid: 0d40cc4c255c2164295a1d4782094fc4, type: 3}
      propertyPath: m_LocalEulerAnglesHint.y
      value: 0
      objectReference: {fileID: 0}
    - target: {fileID: -8679921383154817045, guid: 0d40cc4c255c2164295a1d4782094fc4, type: 3}
      propertyPath: m_LocalEulerAnglesHint.z
      value: 0
      objectReference: {fileID: 0}
    - target: {fileID: 919132149155446097, guid: 0d40cc4c255c2164295a1d4782094fc4, type: 3}
      propertyPath: m_Name
      value: pellet_egg
      objectReference: {fileID: 0}
    m_RemovedComponents: []
  m_SourcePrefab: {fileID: 100100000, guid: 0d40cc4c255c2164295a1d4782094fc4, type: 3}
--- !u!4 &8628327858777990999 stripped
Transform:
  m_CorrespondingSourceObject: {fileID: -8679921383154817045, guid: 0d40cc4c255c2164295a1d4782094fc4, type: 3}
  m_PrefabInstance: {fileID: 8086005342484086972}
  m_PrefabAsset: {fileID: 0}
