%YAML 1.1
%TAG !u! tag:unity3d.com,2011:
--- !u!1 &1462842368647445400
GameObject:
  m_ObjectHideFlags: 0
  m_CorrespondingSourceObject: {fileID: 0}
  m_PrefabInstance: {fileID: 0}
  m_PrefabAsset: {fileID: 0}
  serializedVersion: 6
  m_Component:
  - component: {fileID: 6547949608925250756}
  - component: {fileID: 8354155719231294019}
  m_Layer: 0
  m_Name: prefab_PelletBaconBoxCollider
  m_TagString: Pellet
  m_Icon: {fileID: 0}
  m_NavMeshLayer: 0
  m_StaticEditorFlags: 0
  m_IsActive: 1
--- !u!4 &6547949608925250756
Transform:
  m_ObjectHideFlags: 0
  m_CorrespondingSourceObject: {fileID: 0}
  m_PrefabInstance: {fileID: 0}
  m_PrefabAsset: {fileID: 0}
  m_GameObject: {fileID: 1462842368647445400}
  m_LocalRotation: {x: 0, y: 0, z: 0, w: 1}
  m_LocalPosition: {x: -18.59, y: 1, z: 23.7}
  m_LocalScale: {x: 1, y: 1.5, z: 1}
  m_Children:
  - {fileID: 2007914766642763758}
  m_Father: {fileID: 0}
  m_RootOrder: 0
  m_LocalEulerAnglesHint: {x: 0, y: 0, z: 0}
--- !u!65 &8354155719231294019
BoxCollider:
  m_ObjectHideFlags: 0
  m_CorrespondingSourceObject: {fileID: 0}
  m_PrefabInstance: {fileID: 0}
  m_PrefabAsset: {fileID: 0}
  m_GameObject: {fileID: 1462842368647445400}
  m_Material: {fileID: 0}
  m_IsTrigger: 1
  m_Enabled: 1
  serializedVersion: 2
  m_Size: {x: 1.5, y: 1.5, z: 3}
  m_Center: {x: 0, y: 0, z: 1}
--- !u!1001 &8807981790704256233
PrefabInstance:
  m_ObjectHideFlags: 0
  serializedVersion: 2
  m_Modification:
    m_TransformParent: {fileID: 6547949608925250756}
    m_Modifications:
    - target: {fileID: 7053119779813036807, guid: b8f56700bf0dd314ab3b618d34e67c51, type: 3}
      propertyPath: m_RootOrder
      value: 0
      objectReference: {fileID: 0}
    - target: {fileID: 7053119779813036807, guid: b8f56700bf0dd314ab3b618d34e67c51, type: 3}
      propertyPath: m_LocalPosition.x
      value: 0
      objectReference: {fileID: 0}
    - target: {fileID: 7053119779813036807, guid: b8f56700bf0dd314ab3b618d34e67c51, type: 3}
      propertyPath: m_LocalPosition.y
      value: -0.222
      objectReference: {fileID: 0}
    - target: {fileID: 7053119779813036807, guid: b8f56700bf0dd314ab3b618d34e67c51, type: 3}
      propertyPath: m_LocalPosition.z
      value: 0
      objectReference: {fileID: 0}
    - target: {fileID: 7053119779813036807, guid: b8f56700bf0dd314ab3b618d34e67c51, type: 3}
      propertyPath: m_LocalRotation.w
      value: 0.7071068
      objectReference: {fileID: 0}
    - target: {fileID: 7053119779813036807, guid: b8f56700bf0dd314ab3b618d34e67c51, type: 3}
      propertyPath: m_LocalRotation.x
      value: -0
      objectReference: {fileID: 0}
    - target: {fileID: 7053119779813036807, guid: b8f56700bf0dd314ab3b618d34e67c51, type: 3}
      propertyPath: m_LocalRotation.y
      value: -0
      objectReference: {fileID: 0}
    - target: {fileID: 7053119779813036807, guid: b8f56700bf0dd314ab3b618d34e67c51, type: 3}
      propertyPath: m_LocalRotation.z
      value: 0.7071068
      objectReference: {fileID: 0}
    - target: {fileID: 7053119779813036807, guid: b8f56700bf0dd314ab3b618d34e67c51, type: 3}
      propertyPath: m_LocalEulerAnglesHint.x
      value: 0
      objectReference: {fileID: 0}
    - target: {fileID: 7053119779813036807, guid: b8f56700bf0dd314ab3b618d34e67c51, type: 3}
      propertyPath: m_LocalEulerAnglesHint.y
      value: 0
      objectReference: {fileID: 0}
    - target: {fileID: 7053119779813036807, guid: b8f56700bf0dd314ab3b618d34e67c51, type: 3}
      propertyPath: m_LocalEulerAnglesHint.z
      value: 90
      objectReference: {fileID: 0}
    - target: {fileID: 7686069781962279357, guid: b8f56700bf0dd314ab3b618d34e67c51, type: 3}
      propertyPath: m_Name
      value: prefab_pelletBacon
      objectReference: {fileID: 0}
    m_RemovedComponents: []
  m_SourcePrefab: {fileID: 100100000, guid: b8f56700bf0dd314ab3b618d34e67c51, type: 3}
--- !u!4 &2007914766642763758 stripped
Transform:
  m_CorrespondingSourceObject: {fileID: 7053119779813036807, guid: b8f56700bf0dd314ab3b618d34e67c51, type: 3}
  m_PrefabInstance: {fileID: 8807981790704256233}
  m_PrefabAsset: {fileID: 0}
